GFORTRAN module version '10' created from fdmodule2d.f90
MD5:1db8b1892206929d51856a337f9e1af4 -- If you edit this, you'll get what you deserve.

(() () () () () () () () () () () () () () () () () () () () () () ()
() () () ())

()

()

()

()

()

(2 'cfd4' 'fdmodule' '' 1 ((PROCEDURE UNKNOWN-INTENT MODULE-PROC DECL
UNKNOWN 0 0 SUBROUTINE ALWAYS_EXPLICIT) (UNKNOWN 0 0 0 0 UNKNOWN ()) 3 0
(4 5) () 0 () () () 0 0)
6 'dx' 'fdmodule' '' 1 ((VARIABLE UNKNOWN-INTENT UNKNOWN-PROC UNKNOWN
EXPLICIT-SAVE 0 0) (REAL 8 0 0 0 REAL ()) 0 0 () () 0 () () () 0 0)
7 'dx1' 'fdmodule2d' '' 1 ((VARIABLE UNKNOWN-INTENT UNKNOWN-PROC UNKNOWN
EXPLICIT-SAVE 0 0) (REAL 8 0 0 0 REAL ()) 0 0 () () 0 () () () 0 0)
8 'dx2' 'fdmodule2d' '' 1 ((VARIABLE UNKNOWN-INTENT UNKNOWN-PROC UNKNOWN
EXPLICIT-SAVE 0 0) (REAL 8 0 0 0 REAL ()) 0 0 () () 0 () () () 0 0)
9 'fd2' 'fdmodule' '' 1 ((PROCEDURE UNKNOWN-INTENT MODULE-PROC DECL
UNKNOWN 0 0 SUBROUTINE IMPLICIT_PURE ALWAYS_EXPLICIT) (UNKNOWN 0 0 0 0
UNKNOWN ()) 10 0 (11 12) () 0 () () () 0 0)
13 'fdmodule' 'fdmodule' '' 1 ((MODULE UNKNOWN-INTENT UNKNOWN-PROC
UNKNOWN UNKNOWN 0 0) (UNKNOWN 0 0 0 0 UNKNOWN ()) 0 0 () () 0 () () () 0
0)
14 'fdmodule2d' 'fdmodule2d' '' 1 ((MODULE UNKNOWN-INTENT UNKNOWN-PROC
UNKNOWN UNKNOWN 0 0) (UNKNOWN 0 0 0 0 UNKNOWN ()) 0 0 () () 0 () () () 0
0)
15 'grad' 'fdmodule2d' '' 1 ((PROCEDURE UNKNOWN-INTENT MODULE-PROC DECL
UNKNOWN 0 0 SUBROUTINE ALWAYS_EXPLICIT) (UNKNOWN 0 0 0 0 UNKNOWN ()) 16
0 (17 18 19 20 21) () 0 () () () 0 0)
22 'grad_omp' 'fdmodule2d' '' 1 ((PROCEDURE UNKNOWN-INTENT MODULE-PROC
DECL UNKNOWN 0 0 SUBROUTINE ALWAYS_EXPLICIT) (UNKNOWN 0 0 0 0 UNKNOWN ())
23 0 (24 25 26 27 28) () 0 () () () 0 0)
29 'n' 'fdmodule' '' 1 ((VARIABLE UNKNOWN-INTENT UNKNOWN-PROC UNKNOWN
EXPLICIT-SAVE 0 0) (INTEGER 4 0 0 0 INTEGER ()) 0 0 () () 0 () () () 0 0)
30 'n1' 'fdmodule2d' '' 1 ((VARIABLE UNKNOWN-INTENT UNKNOWN-PROC UNKNOWN
EXPLICIT-SAVE 0 0) (INTEGER 4 0 0 0 INTEGER ()) 0 0 () () 0 () () () 0 0)
31 'n2' 'fdmodule2d' '' 1 ((VARIABLE UNKNOWN-INTENT UNKNOWN-PROC UNKNOWN
EXPLICIT-SAVE 0 0) (INTEGER 4 0 0 0 INTEGER ()) 0 0 () () 0 () () () 0 0)
32 'numthreads' 'fdmodule2d' '' 1 ((VARIABLE UNKNOWN-INTENT UNKNOWN-PROC
UNKNOWN EXPLICIT-SAVE 0 0) (INTEGER 4 0 0 0 INTEGER ()) 0 0 () () 0 () ()
() 0 0)
33 'test_fd' 'fdmodule' '' 1 ((PROCEDURE UNKNOWN-INTENT MODULE-PROC DECL
UNKNOWN 0 0 SUBROUTINE) (UNKNOWN 0 0 0 0 UNKNOWN ()) 34 0 (35 36) () 0 ()
() () 0 0)
37 'test_fd_time' 'fdmodule' '' 1 ((PROCEDURE UNKNOWN-INTENT MODULE-PROC
DECL UNKNOWN 0 0 SUBROUTINE) (UNKNOWN 0 0 0 0 UNKNOWN ()) 38 0 (39 40 41)
() 0 () () () 0 0)
42 'test_grad' 'fdmodule2d' '' 1 ((PROCEDURE UNKNOWN-INTENT MODULE-PROC
DECL UNKNOWN 0 0 SUBROUTINE) (UNKNOWN 0 0 0 0 UNKNOWN ()) 43 0 (44 45) ()
0 () () () 0 0)
46 'test_grad_omp' 'fdmodule2d' '' 1 ((PROCEDURE UNKNOWN-INTENT
MODULE-PROC DECL UNKNOWN 0 0 SUBROUTINE) (UNKNOWN 0 0 0 0 UNKNOWN ()) 47
0 (48 49) () 0 () () () 0 0)
4 'f' '' '' 3 ((VARIABLE IN UNKNOWN-PROC UNKNOWN UNKNOWN 0 0 DIMENSION
DUMMY) (REAL 8 0 0 0 REAL ()) 0 0 () (1 0 ASSUMED_SHAPE (CONSTANT (
INTEGER 4 0 0 0 INTEGER ()) 0 '1') ()) 0 () () () 0 0)
5 'df' '' '' 3 ((VARIABLE OUT UNKNOWN-PROC UNKNOWN UNKNOWN 0 0 DIMENSION
DUMMY) (REAL 8 0 0 0 REAL ()) 0 0 () (1 0 EXPLICIT (CONSTANT (INTEGER 4
0 0 0 INTEGER ()) 0 '1') (FUNCTION (INTEGER 4 0 0 0 INTEGER ()) 0 50 ((''
(VARIABLE (REAL 8 0 0 0 REAL ()) 1 4 ((ARRAY (FULL 1 2))))) ('' ()) (''
())) '' 0 'size')) 0 () () () 0 0)
11 'f' '' '' 10 ((VARIABLE IN UNKNOWN-PROC UNKNOWN UNKNOWN 0 0 DIMENSION
DUMMY) (REAL 8 0 0 0 REAL ()) 0 0 () (1 0 ASSUMED_SHAPE (CONSTANT (
INTEGER 4 0 0 0 INTEGER ()) 0 '1') ()) 0 () () () 0 0)
12 'df' '' '' 10 ((VARIABLE OUT UNKNOWN-PROC UNKNOWN UNKNOWN 0 0
DIMENSION DUMMY) (REAL 8 0 0 0 REAL ()) 0 0 () (1 0 EXPLICIT (CONSTANT (
INTEGER 4 0 0 0 INTEGER ()) 0 '1') (FUNCTION (INTEGER 4 0 0 0 INTEGER ())
0 51 (('' (VARIABLE (REAL 8 0 0 0 REAL ()) 1 11 ((ARRAY (FULL 1 2))))) (
'' ()) ('' ())) '' 0 'size')) 0 () () () 0 0)
17 'f' '' '' 16 ((VARIABLE IN UNKNOWN-PROC UNKNOWN UNKNOWN 0 0 DIMENSION
DUMMY) (REAL 8 0 0 0 REAL ()) 0 0 () (2 0 ASSUMED_SHAPE (CONSTANT (
INTEGER 4 0 0 0 INTEGER ()) 0 '1') () (CONSTANT (INTEGER 4 0 0 0 INTEGER
()) 0 '1') ()) 0 () () () 0 0)
18 'df1' '' '' 16 ((VARIABLE OUT UNKNOWN-PROC UNKNOWN UNKNOWN 0 0
DIMENSION DUMMY) (REAL 8 0 0 0 REAL ()) 0 0 () (2 0 EXPLICIT (CONSTANT (
INTEGER 4 0 0 0 INTEGER ()) 0 '1') (FUNCTION (INTEGER 4 0 0 0 INTEGER ())
0 52 (('' (VARIABLE (REAL 8 0 0 0 REAL ()) 2 17 ((ARRAY (FULL 2 2 2)))))
('' (CONSTANT (INTEGER 4 0 0 0 INTEGER ()) 0 '1')) ('' ())) '' 0 'size')
(CONSTANT (INTEGER 4 0 0 0 INTEGER ()) 0 '1') (FUNCTION (INTEGER 4 0 0 0
INTEGER ()) 0 52 (('' (VARIABLE (REAL 8 0 0 0 REAL ()) 2 17 ((ARRAY (
FULL 2 2 2))))) ('' (CONSTANT (INTEGER 4 0 0 0 INTEGER ()) 0 '2')) ('' ()))
'' 0 'size')) 0 () () () 0 0)
19 'df2' '' '' 16 ((VARIABLE OUT UNKNOWN-PROC UNKNOWN UNKNOWN 0 0
DIMENSION DUMMY) (REAL 8 0 0 0 REAL ()) 0 0 () (2 0 EXPLICIT (CONSTANT (
INTEGER 4 0 0 0 INTEGER ()) 0 '1') (FUNCTION (INTEGER 4 0 0 0 INTEGER ())
0 52 (('' (VARIABLE (REAL 8 0 0 0 REAL ()) 2 17 ((ARRAY (FULL 2 2 2)))))
('' (CONSTANT (INTEGER 4 0 0 0 INTEGER ()) 0 '1')) ('' ())) '' 0 'size')
(CONSTANT (INTEGER 4 0 0 0 INTEGER ()) 0 '1') (FUNCTION (INTEGER 4 0 0 0
INTEGER ()) 0 52 (('' (VARIABLE (REAL 8 0 0 0 REAL ()) 2 17 ((ARRAY (
FULL 2 2 2))))) ('' (CONSTANT (INTEGER 4 0 0 0 INTEGER ()) 0 '2')) ('' ()))
'' 0 'size')) 0 () () () 0 0)
20 'df_amp' '' '' 16 ((VARIABLE OUT UNKNOWN-PROC UNKNOWN UNKNOWN 0 0
DIMENSION DUMMY) (REAL 8 0 0 0 REAL ()) 0 0 () (2 0 EXPLICIT (CONSTANT (
INTEGER 4 0 0 0 INTEGER ()) 0 '1') (FUNCTION (INTEGER 4 0 0 0 INTEGER ())
0 52 (('' (VARIABLE (REAL 8 0 0 0 REAL ()) 2 17 ((ARRAY (FULL 2 2 2)))))
('' (CONSTANT (INTEGER 4 0 0 0 INTEGER ()) 0 '1')) ('' ())) '' 0 'size')
(CONSTANT (INTEGER 4 0 0 0 INTEGER ()) 0 '1') (FUNCTION (INTEGER 4 0 0 0
INTEGER ()) 0 52 (('' (VARIABLE (REAL 8 0 0 0 REAL ()) 2 17 ((ARRAY (
FULL 2 2 2))))) ('' (CONSTANT (INTEGER 4 0 0 0 INTEGER ()) 0 '2')) ('' ()))
'' 0 'size')) 0 () () () 0 0)
21 'df_max' '' '' 16 ((VARIABLE OUT UNKNOWN-PROC UNKNOWN UNKNOWN 0 0
DUMMY) (REAL 8 0 0 0 REAL ()) 0 0 () () 0 () () () 0 0)
24 'f' '' '' 23 ((VARIABLE IN UNKNOWN-PROC UNKNOWN UNKNOWN 0 0 DIMENSION
DUMMY) (REAL 8 0 0 0 REAL ()) 0 0 () (2 0 ASSUMED_SHAPE (CONSTANT (
INTEGER 4 0 0 0 INTEGER ()) 0 '1') () (CONSTANT (INTEGER 4 0 0 0 INTEGER
()) 0 '1') ()) 0 () () () 0 0)
25 'df1' '' '' 23 ((VARIABLE OUT UNKNOWN-PROC UNKNOWN UNKNOWN 0 0
DIMENSION DUMMY) (REAL 8 0 0 0 REAL ()) 0 0 () (2 0 EXPLICIT (CONSTANT (
INTEGER 4 0 0 0 INTEGER ()) 0 '1') (FUNCTION (INTEGER 4 0 0 0 INTEGER ())
0 53 (('' (VARIABLE (REAL 8 0 0 0 REAL ()) 2 24 ((ARRAY (FULL 2 2 2)))))
('' (CONSTANT (INTEGER 4 0 0 0 INTEGER ()) 0 '1')) ('' ())) '' 0 'size')
(CONSTANT (INTEGER 4 0 0 0 INTEGER ()) 0 '1') (FUNCTION (INTEGER 4 0 0 0
INTEGER ()) 0 53 (('' (VARIABLE (REAL 8 0 0 0 REAL ()) 2 24 ((ARRAY (
FULL 2 2 2))))) ('' (CONSTANT (INTEGER 4 0 0 0 INTEGER ()) 0 '2')) ('' ()))
'' 0 'size')) 0 () () () 0 0)
26 'df2' '' '' 23 ((VARIABLE OUT UNKNOWN-PROC UNKNOWN UNKNOWN 0 0
DIMENSION DUMMY) (REAL 8 0 0 0 REAL ()) 0 0 () (2 0 EXPLICIT (CONSTANT (
INTEGER 4 0 0 0 INTEGER ()) 0 '1') (FUNCTION (INTEGER 4 0 0 0 INTEGER ())
0 53 (('' (VARIABLE (REAL 8 0 0 0 REAL ()) 2 24 ((ARRAY (FULL 2 2 2)))))
('' (CONSTANT (INTEGER 4 0 0 0 INTEGER ()) 0 '1')) ('' ())) '' 0 'size')
(CONSTANT (INTEGER 4 0 0 0 INTEGER ()) 0 '1') (FUNCTION (INTEGER 4 0 0 0
INTEGER ()) 0 53 (('' (VARIABLE (REAL 8 0 0 0 REAL ()) 2 24 ((ARRAY (
FULL 2 2 2))))) ('' (CONSTANT (INTEGER 4 0 0 0 INTEGER ()) 0 '2')) ('' ()))
'' 0 'size')) 0 () () () 0 0)
27 'df_amp' '' '' 23 ((VARIABLE OUT UNKNOWN-PROC UNKNOWN UNKNOWN 0 0
DIMENSION DUMMY) (REAL 8 0 0 0 REAL ()) 0 0 () (2 0 EXPLICIT (CONSTANT (
INTEGER 4 0 0 0 INTEGER ()) 0 '1') (FUNCTION (INTEGER 4 0 0 0 INTEGER ())
0 53 (('' (VARIABLE (REAL 8 0 0 0 REAL ()) 2 24 ((ARRAY (FULL 2 2 2)))))
('' (CONSTANT (INTEGER 4 0 0 0 INTEGER ()) 0 '1')) ('' ())) '' 0 'size')
(CONSTANT (INTEGER 4 0 0 0 INTEGER ()) 0 '1') (FUNCTION (INTEGER 4 0 0 0
INTEGER ()) 0 53 (('' (VARIABLE (REAL 8 0 0 0 REAL ()) 2 24 ((ARRAY (
FULL 2 2 2))))) ('' (CONSTANT (INTEGER 4 0 0 0 INTEGER ()) 0 '2')) ('' ()))
'' 0 'size')) 0 () () () 0 0)
28 'df_max' '' '' 23 ((VARIABLE OUT UNKNOWN-PROC UNKNOWN UNKNOWN 0 0
DUMMY) (REAL 8 0 0 0 REAL ()) 0 0 () () 0 () () () 0 0)
35 'alpha' '' '' 34 ((VARIABLE IN UNKNOWN-PROC UNKNOWN UNKNOWN 0 0 DUMMY)
(REAL 8 0 0 0 REAL ()) 0 0 () () 0 () () () 0 0)
36 'error' '' '' 34 ((VARIABLE OUT UNKNOWN-PROC UNKNOWN UNKNOWN 0 0
DIMENSION DUMMY) (REAL 8 0 0 0 REAL ()) 0 0 () (1 0 EXPLICIT (CONSTANT (
INTEGER 4 0 0 0 INTEGER ()) 0 '1') (CONSTANT (INTEGER 4 0 0 0 INTEGER ())
0 '2')) 0 () () () 0 0)
39 'alpha' '' '' 38 ((VARIABLE IN UNKNOWN-PROC UNKNOWN UNKNOWN 0 0 DUMMY)
(REAL 8 0 0 0 REAL ()) 0 0 () () 0 () () () 0 0)
40 'error' '' '' 38 ((VARIABLE OUT UNKNOWN-PROC UNKNOWN UNKNOWN 0 0
DIMENSION DUMMY) (REAL 8 0 0 0 REAL ()) 0 0 () (1 0 EXPLICIT (CONSTANT (
INTEGER 4 0 0 0 INTEGER ()) 0 '1') (CONSTANT (INTEGER 4 0 0 0 INTEGER ())
0 '2')) 0 () () () 0 0)
41 'time' '' '' 38 ((VARIABLE OUT UNKNOWN-PROC UNKNOWN UNKNOWN 0 0
DIMENSION DUMMY) (REAL 8 0 0 0 REAL ()) 0 0 () (1 0 EXPLICIT (CONSTANT (
INTEGER 4 0 0 0 INTEGER ()) 0 '1') (CONSTANT (INTEGER 4 0 0 0 INTEGER ())
0 '2')) 0 () () () 0 0)
44 'error' '' '' 43 ((VARIABLE OUT UNKNOWN-PROC UNKNOWN UNKNOWN 0 0
DIMENSION DUMMY) (REAL 8 0 0 0 REAL ()) 0 0 () (1 0 EXPLICIT (CONSTANT (
INTEGER 4 0 0 0 INTEGER ()) 0 '1') (CONSTANT (INTEGER 4 0 0 0 INTEGER ())
0 '2')) 0 () () () 0 0)
45 'time' '' '' 43 ((VARIABLE OUT UNKNOWN-PROC UNKNOWN UNKNOWN 0 0 DUMMY)
(REAL 8 0 0 0 REAL ()) 0 0 () () 0 () () () 0 0)
48 'error' '' '' 47 ((VARIABLE OUT UNKNOWN-PROC UNKNOWN UNKNOWN 0 0
DIMENSION DUMMY) (REAL 8 0 0 0 REAL ()) 0 0 () (1 0 EXPLICIT (CONSTANT (
INTEGER 4 0 0 0 INTEGER ()) 0 '1') (CONSTANT (INTEGER 4 0 0 0 INTEGER ())
0 '2')) 0 () () () 0 0)
49 'time' '' '' 47 ((VARIABLE OUT UNKNOWN-PROC UNKNOWN UNKNOWN 0 0 DUMMY)
(REAL 8 0 0 0 REAL ()) 0 0 () () 0 () () () 0 0)
50 'size' '(intrinsic)' '' 3 ((PROCEDURE UNKNOWN-INTENT UNKNOWN-PROC
UNKNOWN UNKNOWN 0 0 FUNCTION) (REAL 4 0 0 0 REAL ()) 0 0 () () 50 () ()
() 0 0)
51 'size' '(intrinsic)' '' 10 ((PROCEDURE UNKNOWN-INTENT UNKNOWN-PROC
UNKNOWN UNKNOWN 0 0 FUNCTION) (REAL 4 0 0 0 REAL ()) 0 0 () () 51 () ()
() 0 0)
52 'size' '(intrinsic)' '' 16 ((PROCEDURE UNKNOWN-INTENT UNKNOWN-PROC
UNKNOWN UNKNOWN 0 0 FUNCTION) (UNKNOWN 0 0 0 0 UNKNOWN ()) 0 0 () () 52
() () () 0 0)
53 'size' '(intrinsic)' '' 23 ((PROCEDURE UNKNOWN-INTENT UNKNOWN-PROC
UNKNOWN UNKNOWN 0 0 FUNCTION) (UNKNOWN 0 0 0 0 UNKNOWN ()) 0 0 () () 53
() () () 0 0)
)

('cfd4' 0 2 'dx' 0 6 'dx1' 0 7 'dx2' 0 8 'fd2' 0 9 'fdmodule' 0 13
'fdmodule2d' 0 14 'grad' 0 15 'grad_omp' 0 22 'n' 0 29 'n1' 0 30 'n2' 0
31 'numthreads' 0 32 'test_fd' 0 33 'test_fd_time' 0 37 'test_grad' 0 42
'test_grad_omp' 0 46)
