GFORTRAN module version '10' created from ode2d.f90
MD5:c7e75cd2d5a94e76d341a459351402f0 -- If you edit this, you'll get what you deserve.

(() () () () () () () () () () () () () () () () () () () () () () ()
() () () ())

()

(('omp_get_ancestor_thread_num' 'omp_lib' 2 3) ('omp_get_schedule'
'omp_lib' 4 5) ('omp_get_team_size' 'omp_lib' 6 7) ('omp_set_dynamic'
'omp_lib' 8 9) ('omp_set_max_active_levels' 'omp_lib' 10 11) (
'omp_set_nested' 'omp_lib' 12 13) ('omp_set_num_threads' 'omp_lib' 14 15)
('omp_set_schedule' 'omp_lib' 16 17))

()

()

()

(18 'euler' 'ode2d' '' 1 ((PROCEDURE UNKNOWN-INTENT MODULE-PROC DECL
UNKNOWN 0 0 SUBROUTINE ALWAYS_EXPLICIT) (UNKNOWN 0 0 0 0 UNKNOWN ()) 19
0 (20 21 22 23 24) () 0 () () () 0 0)
25 'numthreads' 'ode2d' '' 1 ((VARIABLE UNKNOWN-INTENT UNKNOWN-PROC
UNKNOWN EXPLICIT-SAVE 0 0) (INTEGER 4 0 0 0 INTEGER ()) 0 0 () () 0 () ()
() 0 0)
26 'ode2d' 'ode2d' '' 1 ((MODULE UNKNOWN-INTENT UNKNOWN-PROC UNKNOWN
UNKNOWN 0 0) (UNKNOWN 0 0 0 0 UNKNOWN ()) 0 0 () () 0 () () () 0 0)
27 'omp_destroy_lock' 'omp_lib' '' 1 ((PROCEDURE UNKNOWN-INTENT
MODULE-PROC BODY UNKNOWN 0 0 EXTERNAL SUBROUTINE) (UNKNOWN 0 0 0 0
UNKNOWN ()) 28 0 (29) () 0 () () () 0 0)
30 'omp_destroy_nest_lock' 'omp_lib' '' 1 ((PROCEDURE UNKNOWN-INTENT
MODULE-PROC BODY UNKNOWN 0 0 EXTERNAL SUBROUTINE) (UNKNOWN 0 0 0 0
UNKNOWN ()) 31 0 (32) () 0 () () () 0 0)
33 'omp_get_active_level' 'omp_lib' '' 1 ((PROCEDURE UNKNOWN-INTENT
MODULE-PROC BODY UNKNOWN 0 0 EXTERNAL FUNCTION) (INTEGER 4 0 0 0 INTEGER
()) 34 0 () () 33 () () () 0 0)
3 'omp_get_ancestor_thread_num' 'omp_lib' '' 1 ((PROCEDURE
UNKNOWN-INTENT MODULE-PROC BODY UNKNOWN 0 0 EXTERNAL FUNCTION GENERIC) (
INTEGER 4 0 0 0 INTEGER ()) 35 0 (36) () 3 () () () 0 0)
2 'omp_get_ancestor_thread_num_8' 'omp_lib' '' 1 ((PROCEDURE
UNKNOWN-INTENT MODULE-PROC BODY UNKNOWN 0 0 EXTERNAL FUNCTION) (INTEGER
4 0 0 0 INTEGER ()) 37 0 (38) () 2 () () () 0 0)
39 'omp_get_dynamic' 'omp_lib' '' 1 ((PROCEDURE UNKNOWN-INTENT
MODULE-PROC BODY UNKNOWN 0 0 EXTERNAL FUNCTION) (LOGICAL 4 0 0 0 LOGICAL
()) 40 0 () () 39 () () () 0 0)
41 'omp_get_level' 'omp_lib' '' 1 ((PROCEDURE UNKNOWN-INTENT MODULE-PROC
BODY UNKNOWN 0 0 EXTERNAL FUNCTION) (INTEGER 4 0 0 0 INTEGER ()) 42 0 ()
() 41 () () () 0 0)
43 'omp_get_max_active_levels' 'omp_lib' '' 1 ((PROCEDURE UNKNOWN-INTENT
MODULE-PROC BODY UNKNOWN 0 0 EXTERNAL FUNCTION) (INTEGER 4 0 0 0 INTEGER
()) 44 0 () () 43 () () () 0 0)
45 'omp_get_max_threads' 'omp_lib' '' 1 ((PROCEDURE UNKNOWN-INTENT
MODULE-PROC BODY UNKNOWN 0 0 EXTERNAL FUNCTION) (INTEGER 4 0 0 0 INTEGER
()) 46 0 () () 45 () () () 0 0)
47 'omp_get_nested' 'omp_lib' '' 1 ((PROCEDURE UNKNOWN-INTENT
MODULE-PROC BODY UNKNOWN 0 0 EXTERNAL FUNCTION) (LOGICAL 4 0 0 0 LOGICAL
()) 48 0 () () 47 () () () 0 0)
49 'omp_get_num_procs' 'omp_lib' '' 1 ((PROCEDURE UNKNOWN-INTENT
MODULE-PROC BODY UNKNOWN 0 0 EXTERNAL FUNCTION) (INTEGER 4 0 0 0 INTEGER
()) 50 0 () () 49 () () () 0 0)
51 'omp_get_num_threads' 'omp_lib' '' 1 ((PROCEDURE UNKNOWN-INTENT
MODULE-PROC BODY UNKNOWN 0 0 EXTERNAL FUNCTION) (INTEGER 4 0 0 0 INTEGER
()) 52 0 () () 51 () () () 0 0)
5 'omp_get_schedule' 'omp_lib' '' 1 ((PROCEDURE UNKNOWN-INTENT
MODULE-PROC BODY UNKNOWN 0 0 EXTERNAL SUBROUTINE GENERIC) (UNKNOWN 0 0 0
0 UNKNOWN ()) 53 0 (54 55) () 0 () () () 0 0)
4 'omp_get_schedule_8' 'omp_lib' '' 1 ((PROCEDURE UNKNOWN-INTENT
MODULE-PROC BODY UNKNOWN 0 0 EXTERNAL SUBROUTINE) (UNKNOWN 0 0 0 0
UNKNOWN ()) 56 0 (57 58) () 0 () () () 0 0)
7 'omp_get_team_size' 'omp_lib' '' 1 ((PROCEDURE UNKNOWN-INTENT
MODULE-PROC BODY UNKNOWN 0 0 EXTERNAL FUNCTION GENERIC) (INTEGER 4 0 0 0
INTEGER ()) 59 0 (60) () 7 () () () 0 0)
6 'omp_get_team_size_8' 'omp_lib' '' 1 ((PROCEDURE UNKNOWN-INTENT
MODULE-PROC BODY UNKNOWN 0 0 EXTERNAL FUNCTION) (INTEGER 4 0 0 0 INTEGER
()) 61 0 (62) () 6 () () () 0 0)
63 'omp_get_thread_limit' 'omp_lib' '' 1 ((PROCEDURE UNKNOWN-INTENT
MODULE-PROC BODY UNKNOWN 0 0 EXTERNAL FUNCTION) (INTEGER 4 0 0 0 INTEGER
()) 64 0 () () 63 () () () 0 0)
65 'omp_get_thread_num' 'omp_lib' '' 1 ((PROCEDURE UNKNOWN-INTENT
MODULE-PROC BODY UNKNOWN 0 0 EXTERNAL FUNCTION) (INTEGER 4 0 0 0 INTEGER
()) 66 0 () () 65 () () () 0 0)
67 'omp_get_wtick' 'omp_lib' '' 1 ((PROCEDURE UNKNOWN-INTENT MODULE-PROC
BODY UNKNOWN 0 0 EXTERNAL FUNCTION) (REAL 8 0 0 0 REAL ()) 68 0 () () 67
() () () 0 0)
69 'omp_get_wtime' 'omp_lib' '' 1 ((PROCEDURE UNKNOWN-INTENT MODULE-PROC
BODY UNKNOWN 0 0 EXTERNAL FUNCTION) (REAL 8 0 0 0 REAL ()) 70 0 () () 69
() () () 0 0)
71 'omp_in_final' 'omp_lib' '' 1 ((PROCEDURE UNKNOWN-INTENT MODULE-PROC
BODY UNKNOWN 0 0 EXTERNAL FUNCTION) (LOGICAL 4 0 0 0 LOGICAL ()) 72 0 ()
() 71 () () () 0 0)
73 'omp_in_parallel' 'omp_lib' '' 1 ((PROCEDURE UNKNOWN-INTENT
MODULE-PROC BODY UNKNOWN 0 0 EXTERNAL FUNCTION) (LOGICAL 4 0 0 0 LOGICAL
()) 74 0 () () 73 () () () 0 0)
75 'omp_init_lock' 'omp_lib' '' 1 ((PROCEDURE UNKNOWN-INTENT MODULE-PROC
BODY UNKNOWN 0 0 EXTERNAL SUBROUTINE) (UNKNOWN 0 0 0 0 UNKNOWN ()) 76 0
(77) () 0 () () () 0 0)
78 'omp_init_nest_lock' 'omp_lib' '' 1 ((PROCEDURE UNKNOWN-INTENT
MODULE-PROC BODY UNKNOWN 0 0 EXTERNAL SUBROUTINE) (UNKNOWN 0 0 0 0
UNKNOWN ()) 79 0 (80) () 0 () () () 0 0)
81 'omp_lib' 'omp_lib' '' 1 ((MODULE UNKNOWN-INTENT UNKNOWN-PROC UNKNOWN
UNKNOWN 0 0) (UNKNOWN 0 0 0 0 UNKNOWN ()) 0 0 () () 0 () () () 0 0)
82 'omp_lib_kinds' 'omp_lib_kinds' '' 1 ((MODULE UNKNOWN-INTENT
UNKNOWN-PROC UNKNOWN UNKNOWN 0 0) (UNKNOWN 0 0 0 0 UNKNOWN ()) 0 0 () ()
0 () () () 0 0)
83 'omp_lock_kind' 'omp_lib_kinds' '' 1 ((PARAMETER UNKNOWN-INTENT
UNKNOWN-PROC UNKNOWN IMPLICIT-SAVE 0 0) (INTEGER 4 0 0 0 INTEGER ()) 0 0
() (CONSTANT (INTEGER 4 0 0 0 INTEGER ()) 0 '4') () 0 () () () 0 0)
84 'omp_nest_lock_kind' 'omp_lib_kinds' '' 1 ((PARAMETER UNKNOWN-INTENT
UNKNOWN-PROC UNKNOWN IMPLICIT-SAVE 0 0) (INTEGER 4 0 0 0 INTEGER ()) 0 0
() (CONSTANT (INTEGER 4 0 0 0 INTEGER ()) 0 '8') () 0 () () () 0 0)
85 'omp_sched_auto' 'omp_lib' '' 1 ((PARAMETER UNKNOWN-INTENT
UNKNOWN-PROC UNKNOWN IMPLICIT-SAVE 0 0) (INTEGER 4 0 0 0 INTEGER ()) 0 0
() (CONSTANT (INTEGER 4 0 0 0 INTEGER ()) 0 '4') () 0 () () () 0 0)
86 'omp_sched_dynamic' 'omp_lib' '' 1 ((PARAMETER UNKNOWN-INTENT
UNKNOWN-PROC UNKNOWN IMPLICIT-SAVE 0 0) (INTEGER 4 0 0 0 INTEGER ()) 0 0
() (CONSTANT (INTEGER 4 0 0 0 INTEGER ()) 0 '2') () 0 () () () 0 0)
87 'omp_sched_guided' 'omp_lib' '' 1 ((PARAMETER UNKNOWN-INTENT
UNKNOWN-PROC UNKNOWN IMPLICIT-SAVE 0 0) (INTEGER 4 0 0 0 INTEGER ()) 0 0
() (CONSTANT (INTEGER 4 0 0 0 INTEGER ()) 0 '3') () 0 () () () 0 0)
88 'omp_sched_kind' 'omp_lib_kinds' '' 1 ((PARAMETER UNKNOWN-INTENT
UNKNOWN-PROC UNKNOWN IMPLICIT-SAVE 0 0) (INTEGER 4 0 0 0 INTEGER ()) 0 0
() (CONSTANT (INTEGER 4 0 0 0 INTEGER ()) 0 '4') () 0 () () () 0 0)
89 'omp_sched_static' 'omp_lib' '' 1 ((PARAMETER UNKNOWN-INTENT
UNKNOWN-PROC UNKNOWN IMPLICIT-SAVE 0 0) (INTEGER 4 0 0 0 INTEGER ()) 0 0
() (CONSTANT (INTEGER 4 0 0 0 INTEGER ()) 0 '1') () 0 () () () 0 0)
9 'omp_set_dynamic' 'omp_lib' '' 1 ((PROCEDURE UNKNOWN-INTENT
MODULE-PROC BODY UNKNOWN 0 0 EXTERNAL SUBROUTINE GENERIC) (UNKNOWN 0 0 0
0 UNKNOWN ()) 90 0 (91) () 0 () () () 0 0)
8 'omp_set_dynamic_8' 'omp_lib' '' 1 ((PROCEDURE UNKNOWN-INTENT
MODULE-PROC BODY UNKNOWN 0 0 EXTERNAL SUBROUTINE) (UNKNOWN 0 0 0 0
UNKNOWN ()) 92 0 (93) () 0 () () () 0 0)
94 'omp_set_lock' 'omp_lib' '' 1 ((PROCEDURE UNKNOWN-INTENT MODULE-PROC
BODY UNKNOWN 0 0 EXTERNAL SUBROUTINE) (UNKNOWN 0 0 0 0 UNKNOWN ()) 95 0
(96) () 0 () () () 0 0)
11 'omp_set_max_active_levels' 'omp_lib' '' 1 ((PROCEDURE UNKNOWN-INTENT
MODULE-PROC BODY UNKNOWN 0 0 EXTERNAL SUBROUTINE GENERIC) (UNKNOWN 0 0 0
0 UNKNOWN ()) 97 0 (98) () 0 () () () 0 0)
10 'omp_set_max_active_levels_8' 'omp_lib' '' 1 ((PROCEDURE
UNKNOWN-INTENT MODULE-PROC BODY UNKNOWN 0 0 EXTERNAL SUBROUTINE) (
UNKNOWN 0 0 0 0 UNKNOWN ()) 99 0 (100) () 0 () () () 0 0)
101 'omp_set_nest_lock' 'omp_lib' '' 1 ((PROCEDURE UNKNOWN-INTENT
MODULE-PROC BODY UNKNOWN 0 0 EXTERNAL SUBROUTINE) (UNKNOWN 0 0 0 0
UNKNOWN ()) 102 0 (103) () 0 () () () 0 0)
13 'omp_set_nested' 'omp_lib' '' 1 ((PROCEDURE UNKNOWN-INTENT
MODULE-PROC BODY UNKNOWN 0 0 EXTERNAL SUBROUTINE GENERIC) (UNKNOWN 0 0 0
0 UNKNOWN ()) 104 0 (105) () 0 () () () 0 0)
12 'omp_set_nested_8' 'omp_lib' '' 1 ((PROCEDURE UNKNOWN-INTENT
MODULE-PROC BODY UNKNOWN 0 0 EXTERNAL SUBROUTINE) (UNKNOWN 0 0 0 0
UNKNOWN ()) 106 0 (107) () 0 () () () 0 0)
15 'omp_set_num_threads' 'omp_lib' '' 1 ((PROCEDURE UNKNOWN-INTENT
MODULE-PROC BODY UNKNOWN 0 0 EXTERNAL SUBROUTINE GENERIC) (UNKNOWN 0 0 0
0 UNKNOWN ()) 108 0 (109) () 0 () () () 0 0)
14 'omp_set_num_threads_8' 'omp_lib' '' 1 ((PROCEDURE UNKNOWN-INTENT
MODULE-PROC BODY UNKNOWN 0 0 EXTERNAL SUBROUTINE) (UNKNOWN 0 0 0 0
UNKNOWN ()) 110 0 (111) () 0 () () () 0 0)
17 'omp_set_schedule' 'omp_lib' '' 1 ((PROCEDURE UNKNOWN-INTENT
MODULE-PROC BODY UNKNOWN 0 0 EXTERNAL SUBROUTINE GENERIC) (UNKNOWN 0 0 0
0 UNKNOWN ()) 112 0 (113 114) () 0 () () () 0 0)
16 'omp_set_schedule_8' 'omp_lib' '' 1 ((PROCEDURE UNKNOWN-INTENT
MODULE-PROC BODY UNKNOWN 0 0 EXTERNAL SUBROUTINE) (UNKNOWN 0 0 0 0
UNKNOWN ()) 115 0 (116 117) () 0 () () () 0 0)
118 'omp_test_lock' 'omp_lib' '' 1 ((PROCEDURE UNKNOWN-INTENT
MODULE-PROC BODY UNKNOWN 0 0 EXTERNAL FUNCTION) (LOGICAL 4 0 0 0 LOGICAL
()) 119 0 (120) () 118 () () () 0 0)
121 'omp_test_nest_lock' 'omp_lib' '' 1 ((PROCEDURE UNKNOWN-INTENT
MODULE-PROC BODY UNKNOWN 0 0 EXTERNAL FUNCTION) (INTEGER 4 0 0 0 INTEGER
()) 122 0 (123) () 121 () () () 0 0)
124 'omp_unset_lock' 'omp_lib' '' 1 ((PROCEDURE UNKNOWN-INTENT
MODULE-PROC BODY UNKNOWN 0 0 EXTERNAL SUBROUTINE) (UNKNOWN 0 0 0 0
UNKNOWN ()) 125 0 (126) () 0 () () () 0 0)
127 'omp_unset_nest_lock' 'omp_lib' '' 1 ((PROCEDURE UNKNOWN-INTENT
MODULE-PROC BODY UNKNOWN 0 0 EXTERNAL SUBROUTINE) (UNKNOWN 0 0 0 0
UNKNOWN ()) 128 0 (129) () 0 () () () 0 0)
130 'openmp_version' 'omp_lib' '' 1 ((PARAMETER UNKNOWN-INTENT
UNKNOWN-PROC UNKNOWN IMPLICIT-SAVE 0 0) (INTEGER 4 0 0 0 INTEGER ()) 0 0
() (CONSTANT (INTEGER 4 0 0 0 INTEGER ()) 0 '201107') () 0 () () () 0 0)
131 'par' 'ode2d' '' 1 ((VARIABLE UNKNOWN-INTENT UNKNOWN-PROC UNKNOWN
EXPLICIT-SAVE 0 0) (INTEGER 4 0 0 0 INTEGER ()) 0 0 () () 0 () () () 0 0)
132 'rhs' 'ode2d' '' 1 ((PROCEDURE UNKNOWN-INTENT MODULE-PROC DECL
UNKNOWN 0 0 DIMENSION FUNCTION ALWAYS_EXPLICIT) (REAL 8 0 0 0 REAL ())
133 0 (134 135) (2 0 EXPLICIT (CONSTANT (INTEGER 4 0 0 0 INTEGER ()) 0 '1')
(FUNCTION (INTEGER 4 0 0 0 INTEGER ()) 0 136 (('' (VARIABLE (REAL 8 0 0
0 REAL ()) 2 135 ((ARRAY (FULL 2 2 2))))) ('' (CONSTANT (INTEGER 4 0 0 0
INTEGER ()) 0 '1')) ('' ())) '' 0 'size') (CONSTANT (INTEGER 4 0 0 0
INTEGER ()) 0 '1') (FUNCTION (INTEGER 4 0 0 0 INTEGER ()) 0 136 (('' (
VARIABLE (REAL 8 0 0 0 REAL ()) 2 135 ((ARRAY (FULL 2 2 2))))) ('' (
CONSTANT (INTEGER 4 0 0 0 INTEGER ()) 0 '2')) ('' ())) '' 0 'size')) 132
() () () 0 0)
137 'rk4' 'ode2d' '' 1 ((PROCEDURE UNKNOWN-INTENT MODULE-PROC DECL
UNKNOWN 0 0 SUBROUTINE ALWAYS_EXPLICIT) (UNKNOWN 0 0 0 0 UNKNOWN ()) 138
0 (139 140 141 142 143 144) () 0 () () () 0 0)
20 't0' '' '' 19 ((VARIABLE IN UNKNOWN-PROC UNKNOWN UNKNOWN 0 0 DUMMY) (
REAL 8 0 0 0 REAL ()) 0 0 () () 0 () () () 0 0)
21 'y0' '' '' 19 ((VARIABLE IN UNKNOWN-PROC UNKNOWN UNKNOWN 0 0
DIMENSION DUMMY) (REAL 8 0 0 0 REAL ()) 0 0 () (2 0 ASSUMED_SHAPE (
CONSTANT (INTEGER 4 0 0 0 INTEGER ()) 0 '1') () (CONSTANT (INTEGER 4 0 0
0 INTEGER ()) 0 '1') ()) 0 () () () 0 0)
22 'dt' '' '' 19 ((VARIABLE IN UNKNOWN-PROC UNKNOWN UNKNOWN 0 0 DUMMY) (
REAL 8 0 0 0 REAL ()) 0 0 () () 0 () () () 0 0)
23 'nt' '' '' 19 ((VARIABLE IN UNKNOWN-PROC UNKNOWN UNKNOWN 0 0 DUMMY) (
INTEGER 4 0 0 0 INTEGER ()) 0 0 () () 0 () () () 0 0)
24 'y' '' '' 19 ((VARIABLE OUT UNKNOWN-PROC UNKNOWN UNKNOWN 0 0
DIMENSION DUMMY) (REAL 8 0 0 0 REAL ()) 0 0 () (2 0 EXPLICIT (CONSTANT (
INTEGER 4 0 0 0 INTEGER ()) 0 '1') (FUNCTION (INTEGER 4 0 0 0 INTEGER ())
0 145 (('' (VARIABLE (REAL 8 0 0 0 REAL ()) 2 21 ((ARRAY (FULL 2 2 2)))))
('' (CONSTANT (INTEGER 4 0 0 0 INTEGER ()) 0 '1')) ('' ())) '' 0 'size')
(CONSTANT (INTEGER 4 0 0 0 INTEGER ()) 0 '1') (FUNCTION (INTEGER 4 0 0 0
INTEGER ()) 0 145 (('' (VARIABLE (REAL 8 0 0 0 REAL ()) 2 21 ((ARRAY (
FULL 2 2 2))))) ('' (CONSTANT (INTEGER 4 0 0 0 INTEGER ()) 0 '2')) ('' ()))
'' 0 'size')) 0 () () () 0 0)
29 'lock' '' '' 28 ((VARIABLE INOUT UNKNOWN-PROC UNKNOWN UNKNOWN 0 0
DUMMY) (INTEGER 4 0 0 0 INTEGER ()) 0 0 () () 0 () () () 0 0)
32 'lock' '' '' 31 ((VARIABLE INOUT UNKNOWN-PROC UNKNOWN UNKNOWN 0 0
DUMMY) (INTEGER 8 0 0 0 INTEGER ()) 0 0 () () 0 () () () 0 0)
36 'level' '' '' 35 ((VARIABLE IN UNKNOWN-PROC UNKNOWN UNKNOWN 0 0 DUMMY)
(INTEGER 4 0 0 0 INTEGER ()) 0 0 () () 0 () () () 0 0)
38 'level' '' '' 37 ((VARIABLE IN UNKNOWN-PROC UNKNOWN UNKNOWN 0 0 DUMMY)
(INTEGER 8 0 0 0 INTEGER ()) 0 0 () () 0 () () () 0 0)
54 'kind' '' '' 53 ((VARIABLE OUT UNKNOWN-PROC UNKNOWN UNKNOWN 0 0 DUMMY)
(INTEGER 4 0 0 0 INTEGER ()) 0 0 () () 0 () () () 0 0)
55 'modifier' '' '' 53 ((VARIABLE OUT UNKNOWN-PROC UNKNOWN UNKNOWN 0 0
DUMMY) (INTEGER 4 0 0 0 INTEGER ()) 0 0 () () 0 () () () 0 0)
57 'kind' '' '' 56 ((VARIABLE OUT UNKNOWN-PROC UNKNOWN UNKNOWN 0 0 DUMMY)
(INTEGER 4 0 0 0 INTEGER ()) 0 0 () () 0 () () () 0 0)
58 'modifier' '' '' 56 ((VARIABLE OUT UNKNOWN-PROC UNKNOWN UNKNOWN 0 0
DUMMY) (INTEGER 8 0 0 0 INTEGER ()) 0 0 () () 0 () () () 0 0)
60 'level' '' '' 59 ((VARIABLE IN UNKNOWN-PROC UNKNOWN UNKNOWN 0 0 DUMMY)
(INTEGER 4 0 0 0 INTEGER ()) 0 0 () () 0 () () () 0 0)
62 'level' '' '' 61 ((VARIABLE IN UNKNOWN-PROC UNKNOWN UNKNOWN 0 0 DUMMY)
(INTEGER 8 0 0 0 INTEGER ()) 0 0 () () 0 () () () 0 0)
77 'lock' '' '' 76 ((VARIABLE OUT UNKNOWN-PROC UNKNOWN UNKNOWN 0 0 DUMMY)
(INTEGER 4 0 0 0 INTEGER ()) 0 0 () () 0 () () () 0 0)
80 'lock' '' '' 79 ((VARIABLE OUT UNKNOWN-PROC UNKNOWN UNKNOWN 0 0 DUMMY)
(INTEGER 8 0 0 0 INTEGER ()) 0 0 () () 0 () () () 0 0)
91 'set' '' '' 90 ((VARIABLE IN UNKNOWN-PROC UNKNOWN UNKNOWN 0 0 DUMMY)
(LOGICAL 4 0 0 0 LOGICAL ()) 0 0 () () 0 () () () 0 0)
93 'set' '' '' 92 ((VARIABLE IN UNKNOWN-PROC UNKNOWN UNKNOWN 0 0 DUMMY)
(LOGICAL 8 0 0 0 LOGICAL ()) 0 0 () () 0 () () () 0 0)
96 'lock' '' '' 95 ((VARIABLE INOUT UNKNOWN-PROC UNKNOWN UNKNOWN 0 0
DUMMY) (INTEGER 4 0 0 0 INTEGER ()) 0 0 () () 0 () () () 0 0)
98 'max_levels' '' '' 97 ((VARIABLE IN UNKNOWN-PROC UNKNOWN UNKNOWN 0 0
DUMMY) (INTEGER 4 0 0 0 INTEGER ()) 0 0 () () 0 () () () 0 0)
100 'max_levels' '' '' 99 ((VARIABLE IN UNKNOWN-PROC UNKNOWN UNKNOWN 0 0
DUMMY) (INTEGER 8 0 0 0 INTEGER ()) 0 0 () () 0 () () () 0 0)
103 'lock' '' '' 102 ((VARIABLE INOUT UNKNOWN-PROC UNKNOWN UNKNOWN 0 0
DUMMY) (INTEGER 8 0 0 0 INTEGER ()) 0 0 () () 0 () () () 0 0)
105 'set' '' '' 104 ((VARIABLE IN UNKNOWN-PROC UNKNOWN UNKNOWN 0 0 DUMMY)
(LOGICAL 4 0 0 0 LOGICAL ()) 0 0 () () 0 () () () 0 0)
107 'set' '' '' 106 ((VARIABLE IN UNKNOWN-PROC UNKNOWN UNKNOWN 0 0 DUMMY)
(LOGICAL 8 0 0 0 LOGICAL ()) 0 0 () () 0 () () () 0 0)
109 'set' '' '' 108 ((VARIABLE IN UNKNOWN-PROC UNKNOWN UNKNOWN 0 0 DUMMY)
(INTEGER 4 0 0 0 INTEGER ()) 0 0 () () 0 () () () 0 0)
111 'set' '' '' 110 ((VARIABLE IN UNKNOWN-PROC UNKNOWN UNKNOWN 0 0 DUMMY)
(INTEGER 8 0 0 0 INTEGER ()) 0 0 () () 0 () () () 0 0)
113 'kind' '' '' 112 ((VARIABLE IN UNKNOWN-PROC UNKNOWN UNKNOWN 0 0
DUMMY) (INTEGER 4 0 0 0 INTEGER ()) 0 0 () () 0 () () () 0 0)
114 'modifier' '' '' 112 ((VARIABLE IN UNKNOWN-PROC UNKNOWN UNKNOWN 0 0
DUMMY) (INTEGER 4 0 0 0 INTEGER ()) 0 0 () () 0 () () () 0 0)
116 'kind' '' '' 115 ((VARIABLE IN UNKNOWN-PROC UNKNOWN UNKNOWN 0 0
DUMMY) (INTEGER 4 0 0 0 INTEGER ()) 0 0 () () 0 () () () 0 0)
117 'modifier' '' '' 115 ((VARIABLE IN UNKNOWN-PROC UNKNOWN UNKNOWN 0 0
DUMMY) (INTEGER 8 0 0 0 INTEGER ()) 0 0 () () 0 () () () 0 0)
120 'lock' '' '' 119 ((VARIABLE INOUT UNKNOWN-PROC UNKNOWN UNKNOWN 0 0
DUMMY) (INTEGER 4 0 0 0 INTEGER ()) 0 0 () () 0 () () () 0 0)
123 'lock' '' '' 122 ((VARIABLE INOUT UNKNOWN-PROC UNKNOWN UNKNOWN 0 0
DUMMY) (INTEGER 8 0 0 0 INTEGER ()) 0 0 () () 0 () () () 0 0)
126 'lock' '' '' 125 ((VARIABLE INOUT UNKNOWN-PROC UNKNOWN UNKNOWN 0 0
DUMMY) (INTEGER 4 0 0 0 INTEGER ()) 0 0 () () 0 () () () 0 0)
129 'lock' '' '' 128 ((VARIABLE INOUT UNKNOWN-PROC UNKNOWN UNKNOWN 0 0
DUMMY) (INTEGER 8 0 0 0 INTEGER ()) 0 0 () () 0 () () () 0 0)
134 't' '' '' 133 ((VARIABLE IN UNKNOWN-PROC UNKNOWN UNKNOWN 0 0 DUMMY)
(REAL 8 0 0 0 REAL ()) 0 0 () () 0 () () () 0 0)
135 'f' '' '' 133 ((VARIABLE IN UNKNOWN-PROC UNKNOWN UNKNOWN 0 0
DIMENSION DUMMY) (REAL 8 0 0 0 REAL ()) 0 0 () (2 0 ASSUMED_SHAPE (
CONSTANT (INTEGER 4 0 0 0 INTEGER ()) 0 '1') () (CONSTANT (INTEGER 4 0 0
0 INTEGER ()) 0 '1') ()) 0 () () () 0 0)
136 'size' '(intrinsic)' '' 133 ((PROCEDURE UNKNOWN-INTENT UNKNOWN-PROC
UNKNOWN UNKNOWN 0 0 FUNCTION) (UNKNOWN 0 0 0 0 UNKNOWN ()) 0 0 () () 136
() () () 0 0)
139 't0' '' '' 138 ((VARIABLE IN UNKNOWN-PROC UNKNOWN UNKNOWN 0 0 DUMMY)
(REAL 8 0 0 0 REAL ()) 0 0 () () 0 () () () 0 0)
140 'y0' '' '' 138 ((VARIABLE IN UNKNOWN-PROC UNKNOWN UNKNOWN 0 0
DIMENSION DUMMY) (REAL 8 0 0 0 REAL ()) 0 0 () (2 0 ASSUMED_SHAPE (
CONSTANT (INTEGER 4 0 0 0 INTEGER ()) 0 '1') () (CONSTANT (INTEGER 4 0 0
0 INTEGER ()) 0 '1') ()) 0 () () () 0 0)
141 'dt' '' '' 138 ((VARIABLE IN UNKNOWN-PROC UNKNOWN UNKNOWN 0 0 DUMMY)
(REAL 8 0 0 0 REAL ()) 0 0 () () 0 () () () 0 0)
142 'nt' '' '' 138 ((VARIABLE IN UNKNOWN-PROC UNKNOWN UNKNOWN 0 0 DUMMY)
(INTEGER 4 0 0 0 INTEGER ()) 0 0 () () 0 () () () 0 0)
143 'y' '' '' 138 ((VARIABLE OUT UNKNOWN-PROC UNKNOWN UNKNOWN 0 0
DIMENSION DUMMY) (REAL 8 0 0 0 REAL ()) 0 0 () (2 0 EXPLICIT (CONSTANT (
INTEGER 4 0 0 0 INTEGER ()) 0 '1') (FUNCTION (INTEGER 4 0 0 0 INTEGER ())
0 146 (('' (VARIABLE (REAL 8 0 0 0 REAL ()) 2 140 ((ARRAY (FULL 2 2 2)))))
('' (CONSTANT (INTEGER 4 0 0 0 INTEGER ()) 0 '1')) ('' ())) '' 0 'size')
(CONSTANT (INTEGER 4 0 0 0 INTEGER ()) 0 '1') (FUNCTION (INTEGER 4 0 0 0
INTEGER ()) 0 146 (('' (VARIABLE (REAL 8 0 0 0 REAL ()) 2 140 ((ARRAY (
FULL 2 2 2))))) ('' (CONSTANT (INTEGER 4 0 0 0 INTEGER ()) 0 '2')) ('' ()))
'' 0 'size')) 0 () () () 0 0)
144 'time' '' '' 138 ((VARIABLE OUT UNKNOWN-PROC UNKNOWN UNKNOWN 0 0
DUMMY) (REAL 8 0 0 0 REAL ()) 0 0 () () 0 () () () 0 0)
145 'size' '(intrinsic)' '' 19 ((PROCEDURE UNKNOWN-INTENT UNKNOWN-PROC
UNKNOWN UNKNOWN 0 0 FUNCTION) (UNKNOWN 0 0 0 0 UNKNOWN ()) 0 0 () () 145
() () () 0 0)
146 'size' '(intrinsic)' '' 138 ((PROCEDURE UNKNOWN-INTENT UNKNOWN-PROC
UNKNOWN UNKNOWN 0 0 FUNCTION) (UNKNOWN 0 0 0 0 UNKNOWN ()) 0 0 () () 146
() () () 0 0)
)

('euler' 0 18 'numthreads' 0 25 'ode2d' 0 26 'omp_destroy_lock' 0 27
'omp_destroy_nest_lock' 0 30 'omp_get_active_level' 0 33
'omp_get_ancestor_thread_num' 0 3 'omp_get_ancestor_thread_num_8' 0 2
'omp_get_dynamic' 0 39 'omp_get_level' 0 41 'omp_get_max_active_levels'
0 43 'omp_get_max_threads' 0 45 'omp_get_nested' 0 47 'omp_get_num_procs'
0 49 'omp_get_num_threads' 0 51 'omp_get_schedule' 0 5
'omp_get_schedule_8' 0 4 'omp_get_team_size' 0 7 'omp_get_team_size_8' 0
6 'omp_get_thread_limit' 0 63 'omp_get_thread_num' 0 65 'omp_get_wtick'
0 67 'omp_get_wtime' 0 69 'omp_in_final' 0 71 'omp_in_parallel' 0 73
'omp_init_lock' 0 75 'omp_init_nest_lock' 0 78 'omp_lib' 0 81
'omp_lib_kinds' 0 82 'omp_lock_kind' 0 83 'omp_nest_lock_kind' 0 84
'omp_sched_auto' 0 85 'omp_sched_dynamic' 0 86 'omp_sched_guided' 0 87
'omp_sched_kind' 0 88 'omp_sched_static' 0 89 'omp_set_dynamic' 0 9
'omp_set_dynamic_8' 0 8 'omp_set_lock' 0 94 'omp_set_max_active_levels'
0 11 'omp_set_max_active_levels_8' 0 10 'omp_set_nest_lock' 0 101
'omp_set_nested' 0 13 'omp_set_nested_8' 0 12 'omp_set_num_threads' 0 15
'omp_set_num_threads_8' 0 14 'omp_set_schedule' 0 17 'omp_set_schedule_8'
0 16 'omp_test_lock' 0 118 'omp_test_nest_lock' 0 121 'omp_unset_lock' 0
124 'omp_unset_nest_lock' 0 127 'openmp_version' 0 130 'par' 0 131 'rhs'
0 132 'rk4' 0 137)
